{"photos":{"page":1, "pages":20, "perpage":10, "total":"200", "photo":[{"id":"8211802813", "owner":"88182970@N08", "secret":"98a7dc2d10", "server":"8480", "farm":9, "title":"image", "ispublic":1, "isfriend":0, "isfamily":0}, {"id":"8212881082", "owner":"88182970@N08", "secret":"56deb7cf74", "server":"8197", "farm":9, "title":"image", "ispublic":1, "isfriend":0, "isfamily":0}, {"id":"8211784871", "owner":"88182970@N08", "secret":"02ea872c3e", "server":"8341", "farm":9, "title":"image", "ispublic":1, "isfriend":0, "isfamily":0}, {"id":"8212861116", "owner":"88182970@N08", "secret":"f7e07171de", "server":"8058", "farm":9, "title":"image", "ispublic":1, "isfriend":0, "isfamily":0}, {"id":"8211770037", "owner":"88182970@N08", "secret":"5f4e4e7aee", "server":"8199", "farm":9, "title":"image", "ispublic":1, "isfriend":0, "isfamily":0}, {"id":"8211767263", "owner":"88182970@N08", "secret":"78c7785134", "server":"8350", "farm":9, "title":"image", "ispublic":1, "isfriend":0, "isfamily":0}, {"id":"8212853652", "owner":"88182970@N08", "secret":"c07f032fa7", "server":"8209", "farm":9, "title":"image", "ispublic":1, "isfriend":0, "isfamily":0}, {"id":"8212852536", "owner":"88182970@N08", "secret":"e0cd998798", "server":"8205", "farm":9, "title":"image", "ispublic":1, "isfriend":0, "isfamily":0}, {"id":"8212851692", "owner":"88182970@N08", "secret":"0415f000f5", "server":"8478", "farm":9, "title":"image", "ispublic":1, "isfriend":0, "isfamily":0}, {"id":"8212850258", "owner":"88182970@N08", "secret":"1b27f3144b", "server":"8065", "farm":9, "title":"image", "ispublic":1, "isfriend":0, "isfamily":0}]}, "stat":"ok"}